<?xml version="1.0" encoding="UTF-8" standalone="no"?>
<svg width="31px" height="31px" viewBox="0 0 31 31" version="1.1" xmlns="http://www.w3.org/2000/svg" xmlns:xlink="http://www.w3.org/1999/xlink" xmlns:sketch="http://www.bohemiancoding.com/sketch/ns">
    <!-- Generator: Sketch 3.0.4 (8054) - http://www.bohemiancoding.com/sketch -->
    <title>back</title>
    <desc>Created with Sketch.</desc>
    <defs></defs>
    <g id="Svgs" stroke="none" stroke-width="1" fill="none" fill-rule="evenodd" sketch:type="MSPage">
        <g id="Colour-Square-#444-6" sketch:type="MSLayerGroup" transform="translate(-484.000000, -98.000000)"></g>
        <g id="back" sketch:type="MSLayerGroup">
            <circle id="iconBorder" stroke-opacity="0" stroke="#444444" sketch:type="MSShapeGroup" cx="15.2263636" cy="15.2263636" r="15.2263636"></circle>
            <path d="M8.99818182,14.5454545 L13.2227273,10.3209091 L12.5054545,9.60363636 L7.07090909,15.0372727 L12.5054545,20.4718182 L13.2227273,19.7545455 L9.02989909,15.5609091 L23.4081818,15.5609091 L23.4081818,14.5454545 L8.99818182,14.5454545 Z" id="Back" fill="#555555" sketch:type="MSShapeGroup"></path>
        </g>
        <g id="Slices" sketch:type="MSLayerGroup" transform="translate(-150.000000, 0.000000)"></g>
    </g>
</svg>