<?xml version="1.0" encoding="UTF-8" standalone="no"?>
<svg width="31px" height="31px" viewBox="0 0 31 31" version="1.1" xmlns="http://www.w3.org/2000/svg" xmlns:xlink="http://www.w3.org/1999/xlink" xmlns:sketch="http://www.bohemiancoding.com/sketch/ns">
    <!-- Generator: Sketch 3.0.4 (8054) - http://www.bohemiancoding.com/sketch -->
    <title>browserBack</title>
    <desc>Created with Sketch.</desc>
    <defs></defs>
    <g id="Svgs" stroke="none" stroke-width="1" fill="none" fill-rule="evenodd" sketch:type="MSPage">
        <g id="Colour-Square-#444-6" sketch:type="MSLayerGroup" transform="translate(-706.000000, -98.000000)"></g>
        <g id="browserBack" sketch:type="MSLayerGroup">
            <circle id="iconBorder" stroke-opacity="0" stroke="#444444" sketch:type="MSShapeGroup" cx="15.2263636" cy="15.2263636" r="15.2263636"></circle>
            <path d="M17.4018182,20.4718182 L11.9672727,15.0372727 L17.4018182,9.60363636 L18.1190909,10.3209091 L13.4027273,15.0372727 L18.1190909,19.7545455 L17.4018182,20.4718182 Z" id="Back" fill="#555555" sketch:type="MSShapeGroup"></path>
        </g>
        <g id="Slices" sketch:type="MSLayerGroup" transform="translate(-372.000000, 0.000000)"></g>
    </g>
</svg>