<?xml version="1.0" encoding="UTF-8" standalone="no"?>
<svg width="32px" height="32px" viewBox="0 0 32 32" version="1.1" xmlns="http://www.w3.org/2000/svg" xmlns:xlink="http://www.w3.org/1999/xlink" xmlns:sketch="http://www.bohemiancoding.com/sketch/ns">
    <!-- Generator: Sketch 3.0.4 (8054) - http://www.bohemiancoding.com/sketch -->
    <title>crop</title>
    <desc>Created with Sketch.</desc>
    <defs></defs>
    <g id="Svgs" stroke="none" stroke-width="1" fill="none" fill-rule="evenodd" sketch:type="MSPage">
        <g id="Colour-Square-#444-6" sketch:type="MSLayerGroup" transform="translate(-410.000000, -172.000000)"></g>
        <g id="crop" sketch:type="MSLayerGroup">
            <circle id="iconBorder" stroke-opacity="0" stroke="#444444" sketch:type="MSShapeGroup" cx="15.2263636" cy="15.2263636" r="15.2263636"></circle>
            <path d="M7.86454545,10.6254545 L7.86454545,7.85909091 L10.8809091,7.85909091" id="Shape" fill="#555555" sketch:type="MSShapeGroup"></path>
            <path d="M11.3636364,22.2154545 L7.86454545,22.2154545 L7.86454545,19.5736364" id="Shape" fill="#555555" sketch:type="MSShapeGroup"></path>
            <path d="M22.2209091,19.6027273 L22.2209091,22.2154545 L19.3463636,22.2154545" id="Shape" fill="#555555" sketch:type="MSShapeGroup"></path>
            <path d="M19.8863636,7.85909091 L22.2209091,7.85909091 L22.2209091,10.4827273" id="Shape" fill="#555555" sketch:type="MSShapeGroup"></path>
        </g>
        <g id="Slices" sketch:type="MSLayerGroup" transform="translate(-76.000000, -74.000000)"></g>
    </g>
</svg>