<?xml version="1.0" encoding="UTF-8" standalone="no"?>
<svg width="185px" height="278px" viewBox="0 0 185 278" version="1.1" xmlns="http://www.w3.org/2000/svg" xmlns:xlink="http://www.w3.org/1999/xlink" xmlns:sketch="http://www.bohemiancoding.com/sketch/ns">
    <!-- Generator: Sketch 3.0.4 (8054) - http://www.bohemiancoding.com/sketch -->
    <title>default_poster</title>
    <desc>Created with Sketch.</desc>
    <defs></defs>
    <g id="Default-Poster" stroke="none" stroke-width="1" fill="none" fill-rule="evenodd" sketch:type="MSPage">
        <rect id="Rectangle-2" fill="#D8D8D8" sketch:type="MSShapeGroup" x="-75" y="-142" width="550" height="561"></rect>
        <rect id="Rectangle-1" stroke="#FFFFFF" stroke-width="20" fill="#FF7878" sketch:type="MSShapeGroup" x="0" y="0" width="185" height="278" rx="2"></rect>
        <g id="Line-+-Line-2-+-No-Poster" sketch:type="MSLayerGroup" transform="translate(61.000000, 147.000000)">
            <path d="M0.5,0.25 L64.5312424,0.25" id="Line" stroke="#FEFEFA" stroke-width="0.5" stroke-linecap="square" sketch:type="MSShapeGroup"></path>
            <path d="M0.5,39.25 L64.5312424,39.25" id="Line-2" stroke="#FEFEFA" stroke-width="0.5" stroke-linecap="square" sketch:type="MSShapeGroup"></path>
            <text id="No-Poster" sketch:type="MSTextLayer" font-family="didot" font-size="14" font-weight="normal" fill="#FFFFFF">
                <tspan x="1" y="19">No Poster</tspan>
            </text>
        </g>
        <g id="other-2" sketch:type="MSLayerGroup" transform="translate(36.000000, 47.000000)">
            <circle id="iconBorder" stroke-opacity="0" stroke="#444444" sketch:type="MSShapeGroup" cx="56.8450909" cy="56.8450909" r="56.8450909"></circle>
            <path d="M57.6958384,31.7915358 L84.3337374,79.1437782 L31.060202,79.1437782 L57.6958384,31.7915358 L57.6958384,31.7915358 Z M57.6958384,27.1515152 L27.1515152,81.4545455 L88.2424242,81.4545455 L57.6958384,27.1515152 L57.6958384,27.1515152 Z" id="Fill-65" fill="#FEFEFA" sketch:type="MSShapeGroup"></path>
            <path d="M56.5656566,49.103804 L58.8282828,49.103804 L58.8282828,65.2791747 L56.5656566,65.2791747 L56.5656566,49.103804 Z" id="Fill-66" fill="#FEFEFA" sketch:type="MSShapeGroup"></path>
            <path d="M57.1279192,68.7453256 C56.1911919,68.7453256 55.4343434,69.5217434 55.4343434,70.478401 C55.4343434,71.4339033 56.1911919,72.2103211 57.1279192,72.2103211 C58.0680404,72.2103211 58.8282828,71.4339033 58.8282828,70.478401 C58.8282828,69.5217434 58.0680404,68.7453256 57.1279192,68.7453256" id="Fill-67" fill="#FEFEFA" sketch:type="MSShapeGroup"></path>
        </g>
    </g>
</svg>