<?xml version="1.0" encoding="UTF-8" standalone="no"?>
<svg width="31px" height="31px" viewBox="0 0 31 31" version="1.1" xmlns="http://www.w3.org/2000/svg" xmlns:xlink="http://www.w3.org/1999/xlink" xmlns:sketch="http://www.bohemiancoding.com/sketch/ns">
    <!-- Generator: Sketch 3.0.4 (8054) - http://www.bohemiancoding.com/sketch -->
    <title>links</title>
    <desc>Created with Sketch.</desc>
    <defs></defs>
    <g id="Svgs" stroke="none" stroke-width="1" fill="none" fill-rule="evenodd" sketch:type="MSPage">
        <g id="Colour-Square-#444-6" sketch:type="MSLayerGroup" transform="translate(-410.000000, -542.000000)">
            <rect id="Rectangle-1" sketch:type="MSShapeGroup" x="0" y="0" width="849" height="597"></rect>
        </g>
        <g id="Link" sketch:type="MSLayerGroup" transform="translate(6.000000, 6.000000)" fill="#555555">
            <path d="M9.98568,12.23676 C9.10728,12.23676 8.22852,11.90268 7.56,11.2338 L8.06904,10.7244 C9.126,11.78172 10.84536,11.78136 11.90304,10.7244 L16.4376,6.18984002 C17.4942,5.13288002 17.4942,3.41352002 16.4376,2.35620002 L15.59304,1.51236002 C14.53644,0.455400018 12.81636,0.455400018 11.7594,1.51236002 L8.55936,4.71204002 L8.05032,4.20300002 L11.25036,1.00332002 C12.58776,-0.334079982 14.76396,-0.334799982 16.10208,1.00332002 L16.94664,1.84716002 C18.28404,3.18492002 18.28404,5.36148002 16.94664,6.69888002 L12.41208,11.2338 C11.7432,11.90232 10.86444,12.23676 9.98568,12.23676" id="Fill-77" sketch:type="MSShapeGroup"></path>
            <path d="M4.27329,17.99838 C3.35709,17.99838 2.49561,17.64162 1.84761,16.99362 L1.00305,16.14978 C-0.33435,14.81166 -0.33435,12.63546 1.00305,11.29806 L5.53797,6.76278 C6.87537,5.42574 9.05265,5.42574 10.38969,6.76278 L11.23425,7.60734 L10.72521,8.11638 L9.88065,7.27182 C8.82405,6.21522 7.10361,6.21558 6.04701,7.27182 L1.51209,11.8071 C0.45585,12.8637 0.45585,14.58342 1.51209,15.64074 L2.35665,16.48458 C2.86857,16.9965 3.54933,17.27838 4.27329,17.27838 C4.99761,17.27838 5.67801,16.9965 6.18993,16.48458 L9.20781,13.4667 L9.71685,13.9761 L6.69897,16.99362 C6.05169,17.64162 5.18985,17.99838 4.27329,17.99838" id="Fill-78" sketch:type="MSShapeGroup"></path>
        </g>
        <g id="Slices" sketch:type="MSLayerGroup" transform="translate(-76.000000, -444.000000)"></g>
    </g>
</svg>