<?xml version="1.0" encoding="UTF-8" standalone="no"?>
<svg width="31px" height="31px" viewBox="0 0 31 31" version="1.1" xmlns="http://www.w3.org/2000/svg" xmlns:xlink="http://www.w3.org/1999/xlink" xmlns:sketch="http://www.bohemiancoding.com/sketch/ns">
    <!-- Generator: Sketch 3.0.4 (8054) - http://www.bohemiancoding.com/sketch -->
    <title>move</title>
    <desc>Created with Sketch.</desc>
    <defs></defs>
    <g id="Svgs" stroke="none" stroke-width="1" fill="none" fill-rule="evenodd" sketch:type="MSPage">
        <g id="Colour-Square-#444-6" sketch:type="MSLayerGroup" transform="translate(-558.000000, -246.000000)"></g>
        <g id="move" sketch:type="MSLayerGroup">
            <circle id="iconBorder" stroke-opacity="0" stroke="#444444" sketch:type="MSShapeGroup" cx="15.2263636" cy="15.2263636" r="15.2263636"></circle>
            <path d="M21.387405,15.5609091 L15.5609091,15.5609091 L15.5609091,21.4230352 L17.7036364,19.8090909 L18.1618182,20.4172727 L15.5609091,22.3765371 L15.5609091,22.5381818 L15.3463268,22.5381818 L15.2690909,22.5963636 L14.9154545,22.5963636 L14.8382186,22.5381818 L14.5454545,22.5381818 L14.5454545,22.3176427 L12.0227273,20.4172727 L12.4809091,19.8090909 L14.5454545,21.3646885 L14.5454545,21.3646885 L14.5454545,15.5609091 L14.5454545,15.5609091 L8.69895864,15.5609091 L8.69895864,15.5609091 L10.2718182,17.6490909 L9.66363636,18.1072727 L7.48454545,15.2136364 L7.48454545,14.8609091 L9.66363636,11.9681818 L10.2718182,12.4254545 L8.67499256,14.5454545 L14.5454545,14.5454545 L14.5454545,8.71057578 L14.5454545,8.71057578 L12.4809091,10.2654545 L12.0227273,9.65818182 L14.9154545,7.47909091 L15.2690909,7.47909091 L18.1618182,9.65818182 L17.7036364,10.2654545 L15.5609091,8.65225611 L15.5609091,14.5454545 L21.4113711,14.5454545 L19.8145455,12.4254545 L20.4227273,11.9681818 L22.3641863,14.5454545 L22.5381818,14.5454545 L22.5381818,14.7764323 L22.6018182,14.8609091 L22.6018182,15.2136364 L22.5381818,15.2981397 L22.5381818,15.5609091 L22.3402999,15.5609091 L20.4227273,18.1072727 L19.8145455,17.6490909 L21.387405,15.5609091 Z" id="Move" fill="#555555" sketch:type="MSShapeGroup"></path>
        </g>
        <g id="Slices" sketch:type="MSLayerGroup" transform="translate(-224.000000, -148.000000)"></g>
    </g>
</svg>