<?xml version="1.0" encoding="UTF-8" standalone="no"?>
<svg width="31px" height="31px" viewBox="0 0 31 31" version="1.1" xmlns="http://www.w3.org/2000/svg" xmlns:xlink="http://www.w3.org/1999/xlink" xmlns:sketch="http://www.bohemiancoding.com/sketch/ns">
    <!-- Generator: Sketch 3.0.4 (8054) - http://www.bohemiancoding.com/sketch -->
    <title>originalSizenobox</title>
    <desc>Created with Sketch.</desc>
    <defs></defs>
    <g id="Svgs" stroke="none" stroke-width="1" fill="none" fill-rule="evenodd" sketch:type="MSPage">
        <g id="Colour-Square-#444-6" sketch:type="MSLayerGroup" transform="translate(-632.000000, -246.000000)"></g>
        <g id="originalSizenobox" sketch:type="MSLayerGroup">
            <circle id="iconBorder" stroke-opacity="0" stroke="#444444" sketch:type="MSShapeGroup" cx="15.2263636" cy="15.2263636" r="15.2263636"></circle>
            <path d="M12.3745455,5.49181818 L12.3745455,10.82 L7.04636364,10.82 L7.04636364,10.1163636 L11.6709091,10.1163636 L11.6709091,5.49181818 L12.3745455,5.49181818 Z M16.9436364,23.1245455 L16.9436364,17.7963636 L22.2709091,17.7963636 L22.2709091,18.5 L17.6472727,18.5 L17.6472727,23.1245455 L16.9436364,23.1245455 Z" id="Shape" fill="#555555" sketch:type="MSShapeGroup"></path>
        </g>
        <g id="Slices" sketch:type="MSLayerGroup" transform="translate(-298.000000, -148.000000)"></g>
    </g>
</svg>