<?xml version="1.0" encoding="UTF-8" standalone="no"?>
<svg width="31px" height="31px" viewBox="0 0 31 31" version="1.1" xmlns="http://www.w3.org/2000/svg" xmlns:xlink="http://www.w3.org/1999/xlink" xmlns:sketch="http://www.bohemiancoding.com/sketch/ns">
    <!-- Generator: Sketch 3.0.4 (8054) - http://www.bohemiancoding.com/sketch -->
    <title>quicklook</title>
    <desc>Created with Sketch.</desc>
    <defs></defs>
    <g id="Svgs" stroke="none" stroke-width="1" fill="none" fill-rule="evenodd" sketch:type="MSPage">
        <g id="Colour-Square-#444-6" sketch:type="MSLayerGroup" transform="translate(-335.000000, -542.000000)">
            <rect id="Rectangle-1" sketch:type="MSShapeGroup" x="0" y="0" width="849" height="597"></rect>
        </g>
        <g id="Quick-Look" sketch:type="MSLayerGroup" transform="translate(5.000000, 9.000000)" fill="#555555">
            <path d="M10.036,11.3393333 C6.075,11.3393333 3.68366667,8.88233333 0.955333333,6.00433333 C4.20133333,2.61966667 6.78266667,0.672666667 10.036,0.672666667 C13.888,0.672666667 16.8983333,3.45033333 19.1383333,6.044 C16.9356667,8.341 13.953,11.3393333 10.036,11.3393333 L10.036,11.3393333 L10.036,11.3393333 L10.036,11.3393333 Z M10.036,0.006 C6.38066667,0.006 3.531,2.294 0.036,6.00366667 C3.04733333,9.17566667 5.574,12.006 10.036,12.006 C14.4983333,12.006 17.778,8.423 20.036,6.07066667 C17.7246667,3.31533333 14.4446667,0.006 10.036,0.006 L10.036,0.006 Z" id="Fill-21" sketch:type="MSShapeGroup"></path>
            <path d="M10.036,9.339 C8.19833333,9.339 6.70266667,7.844 6.70266667,6.006 C6.70266667,4.168 8.19833333,2.673 10.036,2.673 C11.874,2.673 13.3693333,4.168 13.3693333,6.006 C13.3693333,7.844 11.874,9.339 10.036,9.339 L10.036,9.339 L10.036,9.339 L10.036,9.339 Z M10.036,2.00633333 C7.83033333,2.00633333 6.036,3.80066667 6.036,6.006 C6.036,8.21133333 7.83033333,10.0056667 10.036,10.0056667 C12.242,10.0056667 14.036,8.21133333 14.036,6.006 C14.036,3.80066667 12.242,2.00633333 10.036,2.00633333 L10.036,2.00633333 Z" id="Fill-22" sketch:type="MSShapeGroup"></path>
            <path d="M10.036,7.67266667 C9.11733333,7.67266667 8.36933333,6.925 8.36933333,6.006 C8.36933333,5.087 9.11733333,4.33933333 10.036,4.33933333 C10.955,4.33933333 11.7026667,5.087 11.7026667,6.006 C11.7026667,6.925 10.955,7.67266667 10.036,7.67266667 L10.036,7.67266667 L10.036,7.67266667 L10.036,7.67266667 Z M10.036,3.67266667 C8.74966667,3.67266667 7.70266667,4.71966667 7.70266667,6.006 C7.70266667,7.29233333 8.74966667,8.33933333 10.036,8.33933333 C11.3226667,8.33933333 12.3693333,7.29233333 12.3693333,6.006 C12.3693333,4.71966667 11.3226667,3.67266667 10.036,3.67266667 L10.036,3.67266667 Z" id="Fill-23" sketch:type="MSShapeGroup"></path>
        </g>
        <g id="Slices" sketch:type="MSLayerGroup" transform="translate(-1.000000, -444.000000)"></g>
    </g>
</svg>