<?xml version="1.0" encoding="UTF-8" standalone="no"?>
<svg width="31px" height="31px" viewBox="0 0 31 31" version="1.1" xmlns="http://www.w3.org/2000/svg" xmlns:xlink="http://www.w3.org/1999/xlink" xmlns:sketch="http://www.bohemiancoding.com/sketch/ns">
    <!-- Generator: Sketch 3.0.4 (8054) - http://www.bohemiancoding.com/sketch -->
    <title>sites</title>
    <desc>Created with Sketch.</desc>
    <defs></defs>
    <g id="Svgs" stroke="none" stroke-width="1" fill="none" fill-rule="evenodd" sketch:type="MSPage">
        <g id="Colour-Square-#444-6" sketch:type="MSLayerGroup" transform="translate(-780.000000, -320.000000)"></g>
        <g id="sites" sketch:type="MSLayerGroup">
            <circle id="iconBorder" stroke-opacity="0" stroke="#444444" sketch:type="MSShapeGroup" cx="15.2263636" cy="15.2263636" r="15.2263636"></circle>
            <path d="M15.0427273,6.45090909 C10.3081818,6.45090909 6.45636364,10.3027273 6.45636364,15.0372727 C6.45636364,19.7718182 10.3081818,23.6236364 15.0427273,23.6236364 C19.7772727,23.6236364 23.63,19.7718182 23.63,15.0372727 C23.63,10.3027273 19.7781818,6.45090909 15.0427273,6.45090909 L15.0427273,6.45090909 Z M22.5754545,15.8118182 L22.5718182,15.8018182 C21.4627273,16.2863636 20.3590909,16.6236364 19.2754545,16.8672727 C19.4581818,15.5736364 19.4063636,14.3818182 19.2072727,13.3090909 C20.1427273,13.0727273 21.1118182,12.7481818 22.1036364,12.3209091 C22.43,13.1654545 22.6163636,14.0790909 22.6163636,15.0372727 C22.6154545,15.2990909 22.6018182,15.5572727 22.5754545,15.8118182 L22.5754545,15.8118182 Z M7.47090909,15.0372727 C7.47090909,14.1418182 7.63545455,13.2863636 7.92181818,12.4881818 C8.47272727,12.7327273 9.49272727,13.13 10.8690909,13.4354545 C10.7018182,14.5136364 10.6818182,15.7063636 10.8927273,17.0009091 C9.29090909,16.7172727 8.10636364,16.3381818 7.56090909,16.1436364 C7.50818182,15.7809091 7.47090909,15.4136364 7.47090909,15.0372727 L7.47090909,15.0372727 Z M11.5763636,13.5772727 C12.4890909,13.7409091 13.5245455,13.8554545 14.6627273,13.8627273 L14.6627273,17.3509091 C13.5772727,17.34 12.5709091,17.2518182 11.6654545,17.1218182 C11.4163636,15.8245455 11.42,14.64 11.5763636,13.5772727 L11.5763636,13.5772727 Z M15.4236364,7.71 C15.8854545,8.14363636 17.6118182,9.91545455 18.3363636,12.7081818 C17.3181818,12.9181818 16.3409091,13.0336364 15.4236364,13.0654545 L15.4236364,7.71 L15.4236364,7.71 Z M15.4236364,7.48636364 L15.4236364,7.48545455 L15.4245455,7.48545455 L15.4236364,7.48636364 L15.4236364,7.48636364 Z M14.6627273,7.54727273 L14.6627273,13.07 C13.5781818,13.06 12.5881818,12.9563636 11.7172727,12.8009091 C12.3854545,9.85545455 14.18,8.00272727 14.6627273,7.54727273 L14.6627273,7.54727273 Z M14.6627273,18.1118182 L14.6627273,22.5890909 C14.4345455,22.5772727 14.2090909,22.5572727 13.9863636,22.5254545 C12.8963636,20.8763636 12.2172727,19.3336364 11.8445455,17.9136364 C12.7063636,18.0281818 13.6545455,18.1027273 14.6627273,18.1118182 L14.6627273,18.1118182 Z M15.4236364,18.1045455 C16.3554545,18.0818182 17.33,17.9963636 18.3327273,17.8309091 C17.9763636,19.2727273 17.2990909,20.84 16.1745455,22.5145455 C15.9272727,22.5518182 15.6772727,22.5763636 15.4227273,22.5890909 L15.4227273,18.1045455 L15.4236364,18.1045455 Z M15.4236364,17.3454545 L15.4236364,13.85 C16.3927273,13.8145455 17.4245455,13.6972727 18.5054545,13.4681818 C18.6954545,14.5327273 18.7254545,15.7254545 18.5,17.0309091 C17.4381818,17.2236364 16.4063636,17.32 15.4236364,17.3454545 L15.4236364,17.3454545 Z M21.7927273,11.6236364 C20.8527273,12.0272727 19.9318182,12.3345455 19.04,12.5572727 C18.4127273,10.1372727 17.0981818,8.41272727 16.3554545,7.58636364 C18.7345455,8.00636364 20.7318182,9.53545455 21.7927273,11.6236364 L21.7927273,11.6236364 Z M13.5709091,7.61181818 C12.7863636,8.53 11.5627273,10.2718182 11.0163636,12.6645455 C9.69090909,12.3727273 8.72272727,12 8.21818182,11.78 C9.23454545,9.66 11.2018182,8.08090909 13.5709091,7.61181818 L13.5709091,7.61181818 Z M7.74,17.0054545 C8.45363636,17.2372727 9.59909091,17.56 11.0509091,17.7981818 C11.3745455,19.1972727 11.9718182,20.7045455 12.9454545,22.3063636 C10.4127273,21.5745455 8.42818182,19.5563636 7.74,17.0054545 L7.74,17.0054545 Z M17.2263636,22.2854545 C18.2309091,20.6490909 18.8263636,19.11 19.13,17.6827273 C20.2118182,17.4581818 21.3181818,17.1318182 22.43,16.68 C21.8363636,19.3545455 19.8254545,21.5009091 17.2263636,22.2854545 L17.2263636,22.2854545 Z" fill="#555555" sketch:type="MSShapeGroup"></path>
        </g>
        <g id="Slices" sketch:type="MSLayerGroup" transform="translate(-446.000000, -222.000000)"></g>
    </g>
</svg>